Month,Avg. Players,Gain,% Gain,Peak Players

Last 30 Days,19815.52,-3377.3,-14.56%,25391
April 2020,23192.80,-867.57,-3.61%,30086
March 2020,24060.37,9027.52,+60.05%,37034
February 2020,15032.84,782.37,+5.49%,34298
January 2020,14250.47,3408.38,+31.44%,21532
December 2019,10842.09,569.73,+5.55%,17228
November 2019,10272.36,-54.25,-0.53%,13514
October 2019,10326.61,-845.39,-7.57%,13906
September 2019,11172.00,-2241.64,-16.71%,14532
August 2019,13413.64,1636.06,+13.89%,17810
July 2019,11777.58,605.26,+5.42%,15557
June 2019,11172.32,-3759.61,-25.18%,14938
May 2019,14931.93,2842.09,+23.51%,59917
April 2019,12089.84,-1804.01,-12.98%,16260
March 2019,13893.85,2053.81,+17.35%,18176
February 2019,11840.04,-1823.52,-13.35%,16077
January 2019,13663.56,2909.66,+27.06%,17839
December 2018,10753.90,61.49,+0.58%,15621
November 2018,10692.41,839.87,+8.52%,14965
October 2018,9852.53,-2194.67,-18.22%,13437
September 2018,12047.20,1167.67,+10.73%,17401
August 2018,10879.53,-3284.83,-23.19%,15640
July 2018,14164.37,-728.36,-4.89%,18427
June 2018,14892.73,926.42,+6.63%,19395
May 2018,13966.31,-395.82,-2.76%,18850
April 2018,14362.13,-609.77,-4.07%,19144
March 2018,14971.90,-1091.87,-6.80%,20136
February 2018,16063.77,503.87,+3.24%,22396
January 2018,15559.89,3540.27,+29.45%,26187
December 2017,12019.62,1916.26,+18.97%,16615
November 2017,10103.36,-2539.21,-20.08%,14936
October 2017,12642.57,586.74,+4.87%,17399
September 2017,12055.83,-1978.16,-14.10%,15704
August 2017,14033.99,-5671.27,-28.78%,18372
July 2017,19705.27,3192.14,+19.33%,28105
June 2017,16513.13,13904.64,+533.05%,26474
May 2017,2608.49,-,-,18894
