Month;Avg__Players;Gain;__Gain;Peak_Players
ARK;62046.47;-20044.8;-24.42%;101631
Black Desert;19815.52;-3377.3;-14.56%;25391
CSGO;771643.44;-85960.8;-10.02%;1204224
Dead by Daylight;33731.08;1338.4;+4.13%;58477
Destiny 2;52648.87;-13570.8;-20.49%;76476
Dota 2;476576.28;-16724.0;-3.39%;789156
Football Manager 2020;69919.45;-11261.0;-13.87%;123114
Garrys Mod;32342.72;-6416.2;-16.55%;52658
GTA V;138761.44;12674.7;+10.05%;260562
Monster Hunter World;45071.32;-19126.5;-29.79%;106972
NBA 2K20;17211.82;-855.4;-4.73%;29072
PAYDAY 2;35472.9;10153.4;+40.10%;61728
PUBG;239557.69;-3289.6;-1.35%;552384
Rocket League;45847.7;-8285.4;-15.31%;81303
Rust;57406.96;-10097.1;-14.96%;102051
CIV VI;40383.82;-3174.4;-7.29%;76439
TF 2;65410.82;-1776.3;-2.64%;85744
Terraria;122598.16;71283.1;+138.91%;486918
The Witcher 3;20786.64;-6458.7;-23.71%;41736
TC Rainbow SS;80787.75;-27726.8;-25.55%;146359
Warhammer 2;33660.18;9560.0;+39.67%;84254
Unturned;21250.67;-7481.3;-26.04%;28615
Wallpaper Engine;29274.29;1997.0;+7.32%;43734
War Thunder;22168.9;-2621.3;-10.57%;38871
Warframe;49717.78;-6601.0;-11.72%;76165
