Month,Avg. Players,Gain,% Gain,Peak Players

Last 30 Days,22168.90,-2621.3,-10.57%,38871
April 2020,24790.16,4469.10,+21.99%,43584
March 2020,20321.06,5402.72,+36.22%,35377
February 2020,14918.34,1092.94,+7.91%,23963
January 2020,13825.40,437.01,+3.26%,21319
December 2019,13388.39,973.86,+7.84%,23388
November 2019,12414.53,-132.89,-1.06%,21420
October 2019,12547.42,-8.00,-0.06%,22713
September 2019,12555.42,488.88,+4.05%,22878
August 2019,12066.54,1003.51,+9.07%,18688
July 2019,11063.03,-611.30,-5.24%,15867
June 2019,11674.33,-475.93,-3.92%,17809
May 2019,12150.26,-1144.40,-8.61%,20970
April 2019,13294.67,-180.66,-1.34%,25719
March 2019,13475.33,1360.79,+11.23%,23410
February 2019,12114.54,-1305.72,-9.73%,20164
January 2019,13420.26,91.89,+0.69%,21094
December 2018,13328.36,1077.85,+8.80%,23243
November 2018,12250.51,-440.13,-3.47%,23467
October 2018,12690.64,749.80,+6.28%,26688
September 2018,11940.84,-27.96,-0.23%,22517
August 2018,11968.81,441.13,+3.83%,18655
July 2018,11527.68,-844.41,-6.83%,17640
June 2018,12372.09,831.91,+7.21%,21592
May 2018,11540.18,-1643.31,-12.46%,19514
April 2018,13183.49,-248.09,-1.85%,25982
March 2018,13431.58,2340.62,+21.10%,27595
February 2018,11090.97,-524.35,-4.51%,19024
January 2018,11615.32,-264.09,-2.22%,19041
December 2017,11879.40,-72.34,-0.61%,20886
November 2017,11951.74,1270.35,+11.89%,22828
October 2017,10681.39,216.59,+2.07%,20125
September 2017,10464.80,314.79,+3.10%,19330
August 2017,10150.01,770.04,+8.21%,15683
July 2017,9379.97,-924.09,-8.97%,15731
June 2017,10304.06,-485.13,-4.50%,18621
May 2017,10789.19,-41.28,-0.38%,20075
April 2017,10830.48,-163.76,-1.49%,22217
March 2017,10994.24,164.92,+1.52%,21344
February 2017,10829.32,-518.62,-4.57%,18472
January 2017,11347.94,697.34,+6.55%,19324
December 2016,10650.60,725.75,+7.31%,20797
November 2016,9924.85,-1091.90,-9.91%,17816
October 2016,11016.75,1486.95,+15.60%,21819
September 2016,9529.80,-546.01,-5.42%,24737
August 2016,10075.81,379.47,+3.91%,17301
July 2016,9696.34,-1382.98,-12.48%,14474
June 2016,11079.32,742.83,+7.19%,23531
May 2016,10336.49,-756.66,-6.82%,17740
April 2016,11093.15,-515.85,-4.44%,20631
March 2016,11608.99,1215.52,+11.70%,24087
February 2016,10393.47,-799.36,-7.14%,17810
January 2016,11192.82,-91.51,-0.81%,22378
December 2015,11284.34,-211.49,-1.84%,23811
November 2015,11495.83,2406.41,+26.47%,35236
October 2015,9089.42,224.87,+2.54%,17817
September 2015,8864.56,-1320.00,-12.96%,15575
August 2015,10184.55,-938.94,-8.44%,15228
July 2015,11123.50,1068.95,+10.63%,18204
June 2015,10054.55,-3150.59,-23.86%,21073
May 2015,13205.13,1625.89,+14.04%,25134
April 2015,11579.25,-2705.65,-18.94%,24962
March 2015,14284.90,1070.33,+8.10%,29480
February 2015,13214.57,2045.04,+18.31%,29040
January 2015,11169.53,814.94,+7.87%,23837
December 2014,10354.59,2160.78,+26.37%,22249
November 2014,8193.81,-746.84,-8.35%,17205
October 2014,8940.65,2649.49,+42.11%,24601
September 2014,6291.17,-1329.22,-17.44%,11178
August 2014,7620.39,115.81,+1.54%,15720
July 2014,7504.58,-1101.69,-12.80%,11994
June 2014,8606.26,-2257.15,-20.78%,16117
May 2014,10863.41,3772.09,+53.19%,26228
April 2014,7091.33,1649.47,+30.31%,20438
March 2014,5441.85,-766.12,-12.34%,11541
February 2014,6207.97,-868.71,-12.28%,11730
January 2014,7076.68,250.93,+3.68%,12146
December 2013,6825.75,1210.67,+21.56%,22129
November 2013,5615.08,-197.81,-3.40%,13218
October 2013,5812.89,-1774.08,-23.38%,12446
September 2013,7586.98,3467.68,+84.18%,18880
August 2013,4119.29,4119.25,+8575521.59%,12850
July 2013,0.05,-0.03,-40.99%,1
June 2013,0.08,0.08,+Inf%,2
May 2013,0.00,-0.02,-100.00%,0
April 2013,0.02,-,-,1
